

                                               MMP"""""YMM MP""""""`MM
                                               M' .mmm. `M M  mmmmm..M
.d8888b. 88d8b.d8b. .d8888b. .d8888b. .d8888b. M  MMMMM  M M.      `YM
88ooood8 88'`88'`88 88'  `88 88'  `"" Y8ooooo. M  MMMMM  M MMMMMMM.  M
88.  ... 88  88  88 88.  .88 88.  ...       88 M. `MMM' .M M. .MMM'  M
`88888P' dP  dP  dP `88888P8 `88888P' `88888P' MMb     dMM Mb.     .dM
                                               MMMMMMMMMMM MMMMMMMMMMM

